{
  "project_info": {
    "project_number": "918231297604",
    "firebase_url": "https://gcm-sample-ea9ef.firebaseio.com",
    "project_id": "gcm-sample-ea9ef",
    "storage_bucket": "gcm-sample-ea9ef.appspot.com"
  },
  "client": [
    {
      "client_info": {
        "mobilesdk_app_id": "1:918231297604:android:322fe7c7d442c537",
        "android_client_info": {
          "package_name": "ru.gudsoft.gcm"
        }
      },
      "oauth_client": [
        {
          "client_id": "918231297604-tj0nklf9v4kqvmii6508jnkcsl8tb4k3.apps.googleusercontent.com",
          "client_type": 1,
          "android_info": {
            "package_name": "ru.gudsoft.gcm",
            "certificate_hash": "848f155f5c3afa69659ecce27be64c90dffed0f0"
          }
        },
        {
          "client_id": "918231297604-lr8e2439s2k4fhdea7iocss3ibg7mcla.apps.googleusercontent.com",
          "client_type": 3
        }
      ],
      "api_key": [
        {
          "current_key": "AIzaSyAYtLz1NF9_1RpIMhEykI0IrGdBuooZuqY"
        }
      ],
      "services": {
        "analytics_service": {
          "status": 1
        },
        "appinvite_service": {
          "status": 2,
          "other_platform_oauth_client": [
            {
              "client_id": "918231297604-lr8e2439s2k4fhdea7iocss3ibg7mcla.apps.googleusercontent.com",
              "client_type": 3
            }
          ]
        },
        "ads_service": {
          "status": 2
        }
      }
    }
  ],
  "configuration_version": "1"
}